R version 3.5.3 (2019-03-11) -- "Great Truth"
Copyright (C) 2019 The R Foundation for Statistical Computing
Platform: x86_64-pc-linux-gnu (64-bit)

R is free software and comes with ABSOLUTELY NO WARRANTY.
You are welcome to redistribute it under certain conditions.
Type 'license()' or 'licence()' for distribution details.

  Natural language support but running in an English locale

R is a collaborative project with many contributors.
Type 'contributors()' for more information and
'citation()' on how to cite R or R packages in publications.

Type 'demo()' for some demos, 'help()' for on-line help, or
'help.start()' for an HTML browser interface to help.
Type 'q()' to quit R.

[Previously saved workspace restored]

> in_table_norm_sse_hyp <- read.csv('/media/scott/HD2/scRNAseq_simElbow_results/sse_and_hypotenuse_data.tsv' ,sep ='\t')
> aov_sse_res <- aov(Normalized.SSE ~ method+as.factor(K)+iteration, data = in_table_norm_sse_hyp)
> summary(aov_sse_res)
              Df Sum Sq Mean Sq F value   Pr(>F)    
method         4  1.625  0.4062  160.29  < 2e-16 ***
as.factor(K)  15 23.098  1.5399  607.69  < 2e-16 ***
iteration      1  0.041  0.0413   16.28 7.11e-05 ***
Residuals    270  0.684  0.0025                     
---
Signif. codes:  0 ‘***’ 0.001 ‘**’ 0.01 ‘*’ 0.05 ‘.’ 0.1 ‘ ’ 1
> TukeyHSD(aov_sse_res)
Error in rep.int(n, length(means)) : unimplemented type 'NULL' in 'rep3'
In addition: Warning message:
In replications(paste("~", xx), data = mf) : non-factors ignored: iteration
> aov_sse_res <- aov(Normalized.SSE ~ method+as.factor(K)+as.factor(iteration), data = in_table_norm_sse_hyp)
> TukeyHSD(aov_sse_res)
  Tukey multiple comparisons of means
    95% family-wise confidence level

Fit: aov(formula = Normalized.SSE ~ method + as.factor(K) + as.factor(iteration), data = in_table_norm_sse_hyp)

$method
                              diff         lwr         upr     p adj
brennecke-anti_cor     0.351604707  0.28837567  0.41483374 0.0000000
disp-anti_cor          0.402747939  0.33951890  0.46597697 0.0000000
disp_seurat-anti_cor   0.409193096  0.34596406  0.47242213 0.0000000
m3_drop-anti_cor       0.255562987  0.19188208  0.31924389 0.0000000
disp-brennecke         0.051143232  0.02878839  0.07349807 0.0000000
disp_seurat-brennecke  0.057588389  0.03523355  0.07994323 0.0000000
m3_drop-brennecke     -0.096041720 -0.11964439 -0.07243905 0.0000000
disp_seurat-disp       0.006445157 -0.01590968  0.02880000 0.9328299
m3_drop-disp          -0.147184952 -0.17078762 -0.12358228 0.0000000
m3_drop-disp_seurat   -0.153630109 -0.17723278 -0.13002744 0.0000000

$`as.factor(K)`
             diff         lwr          upr     p adj
1-0    0.68259485  0.60185279  0.763336910 0.0000000
2-0    0.48301381  0.40227175  0.563755875 0.0000000
3-0    0.34722604  0.26648398  0.427968099 0.0000000
4-0    0.24644966  0.16570760  0.327191722 0.0000000
5-0    0.16489756  0.08415550  0.245639623 0.0000000
6-0    0.09657321  0.01583115  0.177315275 0.0047202
7-0    0.03745523 -0.04328683  0.118197293 0.9663842
8-0   -0.02030814 -0.10105020  0.060433920 0.9999628
9-0   -0.07026097 -0.15100303  0.010481093 0.1718916
10-0  -0.11509947 -0.19584153 -0.034357405 0.0001622
11-0  -0.16050689 -0.24124895 -0.079764827 0.0000000
12-0  -0.20105123 -0.28179329 -0.120309164 0.0000000
13-0  -0.24147450 -0.32221656 -0.160732439 0.0000000
14-0  -0.27974588 -0.36048794 -0.199003819 0.0000000
15-0  -0.31740515 -0.39814721 -0.236663090 0.0000000
2-1   -0.19958104 -0.25552078 -0.143641294 0.0000000
3-1   -0.33536881 -0.39130855 -0.279429070 0.0000000
4-1   -0.43614519 -0.49208493 -0.380205448 0.0000000
5-1   -0.51769729 -0.57363703 -0.461757547 0.0000000
6-1   -0.58602164 -0.64196138 -0.530081894 0.0000000
7-1   -0.64513962 -0.70107936 -0.589199877 0.0000000
8-1   -0.70290299 -0.75884273 -0.646963250 0.0000000
9-1   -0.75285582 -0.80879556 -0.696916076 0.0000000
10-1  -0.79769432 -0.85363406 -0.741754574 0.0000000
11-1  -0.84310174 -0.89904148 -0.787161997 0.0000000
12-1  -0.88364607 -0.93958582 -0.827706334 0.0000000
13-1  -0.92406935 -0.98000909 -0.868129609 0.0000000
14-1  -0.96234073 -1.01828047 -0.906400989 0.0000000
15-1  -1.00000000 -1.05593974 -0.944060259 0.0000000
3-2   -0.13578778 -0.19172752 -0.079848035 0.0000000
4-2   -0.23656415 -0.29250389 -0.180624412 0.0000000
5-2   -0.31811625 -0.37405599 -0.262176512 0.0000000
6-2   -0.38644060 -0.44238034 -0.330500859 0.0000000
7-2   -0.44555858 -0.50149832 -0.389618842 0.0000000
8-2   -0.50332196 -0.55926170 -0.447382215 0.0000000
9-2   -0.55327478 -0.60921452 -0.497335041 0.0000000
10-2  -0.59811328 -0.65405302 -0.542173539 0.0000000
11-2  -0.64352070 -0.69946044 -0.587580962 0.0000000
12-2  -0.68406504 -0.74000478 -0.628125299 0.0000000
13-2  -0.72448831 -0.78042806 -0.668548573 0.0000000
14-2  -0.76275969 -0.81869944 -0.706819953 0.0000000
15-2  -0.80041896 -0.85635871 -0.744479224 0.0000000
4-3   -0.10077638 -0.15671612 -0.044836637 0.0000002
5-3   -0.18232848 -0.23826822 -0.126388736 0.0000000
6-3   -0.25065282 -0.30659257 -0.194713083 0.0000000
7-3   -0.30977081 -0.36571055 -0.253831066 0.0000000
8-3   -0.36753418 -0.42347392 -0.311594439 0.0000000
9-3   -0.41748701 -0.47342675 -0.361547265 0.0000000
10-3  -0.46232550 -0.51826525 -0.406385763 0.0000000
11-3  -0.50773293 -0.56367267 -0.451793186 0.0000000
12-3  -0.54827726 -0.60421700 -0.492337523 0.0000000
13-3  -0.58870054 -0.64464028 -0.532760798 0.0000000
14-3  -0.62697192 -0.68291166 -0.571032178 0.0000000
15-3  -0.66463119 -0.72057093 -0.608691448 0.0000000
5-4   -0.08155210 -0.13749184 -0.025612359 0.0000964
6-4   -0.14987645 -0.20581619 -0.093936706 0.0000000
7-4   -0.20899443 -0.26493417 -0.153054688 0.0000000
8-4   -0.26675780 -0.32269754 -0.210818062 0.0000000
9-4   -0.31671063 -0.37265037 -0.260770888 0.0000000
10-4  -0.36154913 -0.41748887 -0.305609386 0.0000000
11-4  -0.40695655 -0.46289629 -0.351016808 0.0000000
12-4  -0.44750089 -0.50344063 -0.391561145 0.0000000
13-4  -0.48792416 -0.54386390 -0.431984420 0.0000000
14-4  -0.52619554 -0.58213528 -0.470255800 0.0000000
15-4  -0.56385481 -0.61979455 -0.507915071 0.0000000
6-5   -0.06832435 -0.12426409 -0.012384607 0.0033520
7-5   -0.12744233 -0.18338207 -0.071502589 0.0000000
8-5   -0.18520570 -0.24114544 -0.129265962 0.0000000
9-5   -0.23515853 -0.29109827 -0.179218788 0.0000000
10-5  -0.27999703 -0.33593677 -0.224057287 0.0000000
11-5  -0.32540445 -0.38134419 -0.269464709 0.0000000
12-5  -0.36594879 -0.42188853 -0.310009046 0.0000000
13-5  -0.40637206 -0.46231180 -0.350432321 0.0000000
14-5  -0.44464344 -0.50058318 -0.388703701 0.0000000
15-5  -0.48230271 -0.53824245 -0.426362971 0.0000000
7-6   -0.05911798 -0.11505772 -0.003178242 0.0266979
8-6   -0.11688136 -0.17282110 -0.060941615 0.0000000
9-6   -0.16683418 -0.22277392 -0.110894441 0.0000000
10-6  -0.21167268 -0.26761242 -0.155732939 0.0000000
11-6  -0.25708010 -0.31301984 -0.201140362 0.0000000
12-6  -0.29762444 -0.35356418 -0.241684699 0.0000000
13-6  -0.33804771 -0.39398746 -0.282107973 0.0000000
14-6  -0.37631909 -0.43225884 -0.320379353 0.0000000
15-6  -0.41397836 -0.46991811 -0.358038624 0.0000000
8-7   -0.05776337 -0.11370311 -0.001823632 0.0350940
9-7   -0.10771620 -0.16365594 -0.051776459 0.0000000
10-7  -0.15255470 -0.20849444 -0.096614957 0.0000000
11-7  -0.19796212 -0.25390186 -0.142022379 0.0000000
12-7  -0.23850646 -0.29444620 -0.182566716 0.0000000
13-7  -0.27892973 -0.33486947 -0.222989991 0.0000000
14-7  -0.31720111 -0.37314085 -0.261261371 0.0000000
15-7  -0.35486038 -0.41080012 -0.298920641 0.0000000
9-8   -0.04995283 -0.10589257  0.005986915 0.1414010
10-8  -0.09479132 -0.15073107 -0.038851584 0.0000016
11-8  -0.14019875 -0.19613849 -0.084259006 0.0000000
12-8  -0.18074308 -0.23668282 -0.124803343 0.0000000
13-8  -0.22116636 -0.27710610 -0.165226618 0.0000000
14-8  -0.25943774 -0.31537748 -0.203497998 0.0000000
15-8  -0.29709701 -0.35303675 -0.241157268 0.0000000
10-9  -0.04483850 -0.10077824  0.011101243 0.2914758
11-9  -0.09024592 -0.14618566 -0.034306180 0.0000069
12-9  -0.13079026 -0.18673000 -0.074850517 0.0000000
13-9  -0.17121353 -0.22715327 -0.115273792 0.0000000
14-9  -0.20948491 -0.26542465 -0.153545172 0.0000000
15-9  -0.24714418 -0.30308392 -0.191204442 0.0000000
11-10 -0.04540742 -0.10134716  0.010532318 0.2711288
12-10 -0.08595176 -0.14189150 -0.030012019 0.0000261
13-10 -0.12637503 -0.18231478 -0.070435293 0.0000000
14-10 -0.16464641 -0.22058616 -0.108706673 0.0000000
15-10 -0.20230568 -0.25824543 -0.146365944 0.0000000
12-11 -0.04054434 -0.09648408  0.015395404 0.4695826
13-11 -0.08096761 -0.13690735 -0.025027871 0.0001142
14-11 -0.11923899 -0.17517873 -0.063299251 0.0000000
15-11 -0.15689826 -0.21283800 -0.100958521 0.0000000
13-12 -0.04042327 -0.09636302  0.015516466 0.4750758
14-12 -0.07869465 -0.13463440 -0.022754914 0.0002182
15-12 -0.11635393 -0.17229367 -0.060414184 0.0000000
14-13 -0.03827138 -0.09421112  0.017668361 0.5743822
15-13 -0.07593065 -0.13187039 -0.019990910 0.0004689
15-14 -0.03765927 -0.09359901  0.018280470 0.6027078

$`as.factor(iteration)`
            diff           lwr         upr     p adj
2-1 -0.016379484 -0.0411672435 0.008408276 0.3671264
3-1  0.010453586 -0.0161160272 0.037023199 0.8164351
4-1  0.018832601 -0.0059551587 0.043620361 0.2288682
5-1  0.023515931 -0.0012718285 0.048303691 0.0721900
3-2  0.026833070  0.0002634565 0.053402683 0.0464559
4-2  0.035212085  0.0104243250 0.059999845 0.0011370
5-2  0.039895415  0.0151076552 0.064683175 0.0001390
4-3  0.008379015 -0.0181905979 0.034948628 0.9090126
5-3  0.013062345 -0.0135072677 0.039631959 0.6599687
5-4  0.004683330 -0.0201044296 0.029471090 0.9854114

> in_table_k <- read.csv('/media/scott/HD2/scRNAseq_simElbow_results/estimates_of_k_for_each_method.tsv'  ,sep ='\t')
> summary(in_table_k)
   iteration         method    K.estimate   Silhoette.K.estimate
 Min.   :1   anti_cor   :5   Min.   :1.00   Min.   : 1.00       
 1st Qu.:2   brennecke  :5   1st Qu.:4.00   1st Qu.: 7.00       
 Median :3   disp       :5   Median :6.00   Median :15.00       
 Mean   :3   disp_seurat:5   Mean   :4.92   Mean   :11.32       
 3rd Qu.:4   m3_drop    :5   3rd Qu.:6.00   3rd Qu.:15.00       
 Max.   :5                   Max.   :8.00   Max.   :15.00       
> aov_k_elbow <- aov(K.estimate ~ method+as.factor(iteration), data = in_table_k)
> summary(aov_k_elbow)
                     Df Sum Sq Mean Sq F value   Pr(>F)    
method                4 112.24  28.060  28.487 4.23e-07 ***
as.factor(iteration)  4   5.84   1.460   1.482    0.254    
Residuals            16  15.76   0.985                     
---
Signif. codes:  0 ‘***’ 0.001 ‘**’ 0.01 ‘*’ 0.05 ‘.’ 0.1 ‘ ’ 1
> TukeyHSD(aov_k_elbow)
  Tukey multiple comparisons of means
    95% family-wise confidence level

Fit: aov(formula = K.estimate ~ method + as.factor(iteration), data = in_table_k)

$method
                      diff      lwr        upr     p adj
brennecke-anti_cor     5.0  3.07695  6.9230497 0.0000052
disp-anti_cor          5.6  3.67695  7.5230497 0.0000012
disp_seurat-anti_cor   5.6  3.67695  7.5230497 0.0000012
m3_drop-anti_cor       3.4  1.47695  5.3230497 0.0004748
disp-brennecke         0.6 -1.32305  2.5230497 0.8705567
disp_seurat-brennecke  0.6 -1.32305  2.5230497 0.8705567
m3_drop-brennecke     -1.6 -3.52305  0.3230497 0.1283903
disp_seurat-disp       0.0 -1.92305  1.9230497 1.0000000
m3_drop-disp          -2.2 -4.12305 -0.2769503 0.0211759
m3_drop-disp_seurat   -2.2 -4.12305 -0.2769503 0.0211759

$`as.factor(iteration)`
             diff        lwr       upr     p adj
2-1  1.776357e-15 -1.9230497 1.9230497 1.0000000
3-1 -1.000000e+00 -2.9230497 0.9230497 0.5220792
4-1  2.000000e-01 -1.7230497 2.1230497 0.9975229
5-1  4.000000e-01 -1.5230497 2.3230497 0.9665868
3-2 -1.000000e+00 -2.9230497 0.9230497 0.5220792
4-2  2.000000e-01 -1.7230497 2.1230497 0.9975229
5-2  4.000000e-01 -1.5230497 2.3230497 0.9665868
4-3  1.200000e+00 -0.7230497 3.1230497 0.3505562
5-3  1.400000e+00 -0.5230497 3.3230497 0.2183994
5-4  2.000000e-01 -1.7230497 2.1230497 0.9975229

> > aov_k_sil <- aov(Silhoette.K.estimate ~ method+as.factor(iteration), data = in_table_k)
> summary(aov_k_sil)
                     Df Sum Sq Mean Sq F value   Pr(>F)    
method                4  738.2  184.56   22.62 2.03e-06 ***
as.factor(iteration)  4   32.6    8.16    1.00    0.436    
Residuals            16  130.6    8.16                     
---
Signif. codes:  0 ‘***’ 0.001 ‘**’ 0.01 ‘*’ 0.05 ‘.’ 0.1 ‘ ’ 1
> TukeyHSD(aov_k_sil)
  Tukey multiple comparisons of means
    95% family-wise confidence level

Fit: aov(formula = Silhoette.K.estimate ~ method + as.factor(iteration), data = in_table_k)

$method
                               diff       lwr       upr     p adj
brennecke-anti_cor     1.400000e+01  8.465002 19.534998 0.0000073
disp-anti_cor          1.400000e+01  8.465002 19.534998 0.0000073
disp_seurat-anti_cor   1.400000e+01  8.465002 19.534998 0.0000073
m3_drop-anti_cor       9.600000e+00  4.065002 15.134998 0.0005793
disp-brennecke        -1.776357e-15 -5.534998  5.534998 1.0000000
disp_seurat-brennecke  1.776357e-15 -5.534998  5.534998 1.0000000
m3_drop-brennecke     -4.400000e+00 -9.934998  1.134998 0.1560369
disp_seurat-disp       3.552714e-15 -5.534998  5.534998 1.0000000
m3_drop-disp          -4.400000e+00 -9.934998  1.134998 0.1560369
m3_drop-disp_seurat   -4.400000e+00 -9.934998  1.134998 0.1560369

$`as.factor(iteration)`
             diff       lwr      upr     p adj
2-1 -1.600000e+00 -7.134998 3.934998 0.8980851
3-1 -2.800000e+00 -8.334998 2.734998 0.5474310
4-1  0.000000e+00 -5.534998 5.534998 1.0000000
5-1 -1.776357e-15 -5.534998 5.534998 1.0000000
3-2 -1.200000e+00 -6.734998 4.334998 0.9613121
4-2  1.600000e+00 -3.934998 7.134998 0.8980851
5-2  1.600000e+00 -3.934998 7.134998 0.8980851
4-3  2.800000e+00 -2.734998 8.334998 0.5474310
5-3  2.800000e+00 -2.734998 8.334998 0.5474310
5-4 -1.776357e-15 -5.534998 5.534998 1.0000000

> 


